[
    {
        "study": "Gripe",
        "value": "456",
        "color": "rgba(255,0,0,0.3)"
    },
    {
        "study": "Electrocardiograma",
        "value": "456",
        "color": "rgba(0,255,0,0.3)"
    },
    {
        "study": "Neumología",
        "value": "150",
        "color": "rgba(0,0,255,0.3)"
    }
]